[gd_scene load_steps=2 format=3 uid="uid://d1cei2kqvplow"]

[ext_resource type="Script" path="res://Scripts/Concepts/_Camera2D.cs" id="1_opudo"]

[node name="_Camera2D" type="Camera2D"]
script = ExtResource("1_opudo")
viewSize = Vector2(62, 31)
zoomRate = 0.001
zoomMultiplier = 0.03
metadata/zoomRange = PackedFloat32Array(0.001, 0.001)

[node name="Label" type="Label" parent="."]
anchors_preset = 8
anchor_left = 0.5
anchor_top = 0.5
anchor_right = 0.5
anchor_bottom = 0.5
offset_left = -4579.0
offset_top = -2000.0
offset_right = 4579.0
offset_bottom = -635.0
grow_horizontal = 2
grow_vertical = 2
theme_override_font_sizes/font_size = 1000
text = "Use WASD to move"
horizontal_alignment = 1
vertical_alignment = 1
